Code Club S02E04: Intro to the Tidyverse (Part 1) | BioDASH
…
# did it work?
big_penguins %>%
  select(body_mass_g) %>%
  range()
#> [1] 5050 6300

# another faster non-tidyverse way to do this
range(big_penguins$body_mass_g)
#> [1] 5050 6300

You can start stacking qualifiers to get the exact penguins you want. Let’s say we are only interested in penguins that are female and on the island Dream.

penguins %>%
  filter(sex == "female" & island == "Dream") 
#> # A tibble: 61 × 8
#>    species island bill_length_mm bill_depth_mm flipper_length_mm body_mass_g
#>    <fct>   <fct>           <dbl>         <dbl>             <int>       <int>
#>  1 Adelie  Dream            39.5          16.7               178        3250
#>  2 Adelie  Dream            39.5          17.8               188        3300
#>  3 Adelie  Dream            36.4          17                 195        3325
#>  4 Adelie  Dream            42.2          18.5               180        3550
#>  5 Adelie  Dream            37.6          19.3               181        3300
#>  6 Adelie  Dream            36.5          18                 182        3150
#>  7 Adelie  Dream            36            18.5               186        3100
#>  8 Adelie  Dream            37            16.9               185        3000
#>  9 Adelie  Dream            36            17.9               190        3450
#> 10 Adelie  Dream            37.3          17.8               191        3350
#> # … with 51 more rows, and 2 more variables: sex <fct>, year <int>
…
