Session 19: Word Clouds via Tidytext | BioDASH
…
Punctuation has been stripped and all words are lower case, but possessives and contractions are preserved (fancy usage of str_ regular expression functions under the hood…).

Bakeoff!

Now that we have the basic idea, let’s look at a more interesting data set, from the bakeoff package.

First we’ll create a data frame with just the signature column from the bakes data set:

signature_df <- select(bakes, signature)

signature_df

#> # A tibble: 548 x 1
#>    signature                                                                    
#>    <chr>                                                                        
#>  1 "Light Jamaican Black Cakewith Strawberries and Cream"                       
#>  2 "Chocolate Orange Cake"                                                      
#>  3 "Caramel Cinnamon and Banana Cake"                                           
#>  4 "Fresh Mango and Passion Fruit Hummingbird Cake"                             
#>  5 "Carrot Cake with Lime and Cream Cheese Icing"                               
#>  6 "Cranberry and Pistachio Cakewith Orange Flower Water Icing"                 
#>  7 "Carrot and Orange Cake"                                                     
#>  8 "Sticky Marmalade Tea Loaf"                                                  
#>  9 "Triple Layered Brownie Meringue Cake\nwith Raspberry Cream"                 
#> 10 "Three Tiered Lemon Drizzle Cakewith Fresh Cream and freshly made Lemon Curd"
#> # … with 538 more rows

Next we tokenize by word on the signature column:

signature_tidy <- signature_df %>%
    unnest_tokens(word, signature)

signature_tidy

#> # A tibble: 2,762 x 1
#>    word        
#>    <chr>       
#>  1 light       
#>  2 jamaican    
#>  3 black       
#>  4 cakewith    
#>  5 strawberries
#>  6 and         
#>  7 cream       
#>  8 chocolate   
#>  9 orange      
#> 10 cake        
#> # … with 2,752 more rows

Now we want to count those tokens: i.e. we want to collapse all duplicate word tokens into a single word type, with the corresponding frequency. Since we now have tidy data, dplyr to the rescue!

dplyr count() lets you quickly count the unique values of one or more variables. The option sort, if TRUE, will show the largest groups at the top.

signature_count <- signature_tidy %>% 
    count(word, sort = TRUE)

signature_count

#> # A tibble: 806 x 2
#>    word          n
#>    <chr>     <int>
#>  1 and         321
#>  2 cake         66
#>  3 chocolate    61
#>  4 orange       42
#>  5 with         42
#>  6 pie          37
#>  7 apple        34
#>  8 ginger       30
#>  9 lemon        29
#> 10 biscuits     26
#> # … with 796 more rows

We’re way more interested in cake than and: this is an example of a stop word:

In computing, stop words are words which are filtered out before or after processing of natural language data (text). “stop words” usually refers to the most common words in a language.

One of our major performance (search) optimizations… is removing the top 10,000 most common English dictionary words (as determined by Google search). It’s shocking how little is left of most posts once you remove the top 10k English dictionary words…

The tidytext package has a database of just over a thousand of these words, including ‘and’:

print(stop_words, n = 30)

#> # A tibble: 1,149 x 2
#>    word        lexicon
#>    <chr>       <chr>  
#>  1 a           SMART  
#>  2 a's         SMART  
#>  3 able        SMART  
#>  4 about       SMART  
#>  5 above       SMART  
#>  6 according   SMART  
#>  7 accordingly SMART  
#>  8 across      SMART  
#>  9 actually    SMART  
#> 10 after       SMART  
#> 11 afterwards  SMART  
#> 12 again       SMART  
#> 13 against     SMART  
#> 14 ain't       SMART  
#> 15 all         SMART  
#> 16 allow       SMART  
#> 17 allows      SMART  
#> 18 almost      SMART  
#> 19 alone       SMART  
#> 20 along       SMART  
#> 21 already     SMART  
#> 22 also        SMART  
#> 23 although    SMART  
#> 24 always      SMART  
#> 25 am          SMART  
#> 26 among       SMART  
#> 27 amongst     SMART  
#> 28 an          SMART  
#> 29 and         SMART  
#> 30 another     SMART  
#> # … with 1,119 more rows

Note that the name of the stop word column is word, and the name we used in our tokenized column is word (now you will see why we used that name) so we can use dplyr’s anti_join() to filter the word tokens!

anti_join() returns all rows from x without a match in y (where x are the word tokens, and y are the stop words)

signature_count <- signature_tidy %>% 
    count(word, sort = TRUE) %>% 
    anti_join(stop_words)

#> Joining, by = "word"

signature_count

#> # A tibble: 762 x 2
#>    word          n
#>    <chr>     <int>
#>  1 cake         66
#>  2 chocolate    61
#>  3 orange       42
#>  4 pie          37
#>  5 apple        34
#>  6 ginger       30
#>  7 lemon        29
#>  8 biscuits     26
#>  9 loaf         22
#> 10 walnut       22
#> # … with 752 more rows
…
The gutenbergr package

Say we wanted to do a word cloud for a more substantive text like Darwin’s Origin of Species.

Project Gutenberg is a volunteer effort to digitize and archive cultural works and is the oldest digital library. It has over 60,000 books in the public domain (including Darwin’s works).

The gutenbergr package allows you to download any of these works directly into a data frame using just the Project Gutenberg ID. This is then perfect input for tidytext. The package provides all the metadata to search for author and work IDs inside R (you can also just find the ID by searching on the Project Gutenberg website):

darwins_works <- gutenberg_metadata %>%
    filter(author == "Darwin, Charles")

darwins_works

#> # A tibble: 40 x 8
#>    gutenberg_id title author gutenberg_autho… language gutenberg_books… rights
#>           <int> <chr> <chr>             <int> <chr>    <chr>            <chr> 
#>  1          944 "The… Darwi…              485 en       Travel/Harvard … Publi…
#>  2         1227 "The… Darwi…              485 en       NA               Publi…
#>  3         1228 "On … Darwi…              485 en       Harvard Classic… Publi…
#>  4         2009 "The… Darwi…              485 en       Harvard Classic… Publi…
#>  5         2010 "The… Darwi…              485 en       NA               Publi…
#>  6         2087 "Lif… Darwi…              485 en       NA               Publi…
#>  7         2088 "Lif… Darwi…              485 en       NA               Publi…
#>  8         2300 "The… Darwi…              485 en       NA               Publi…
#>  9         2355 "The… Darwi…              485 en       NA               Publi…
#> 10         2485 "The… Darwi…              485 en       Botany           Publi…
#> # … with 30 more rows, and 1 more variable: has_text <lgl>
…
and inspect the data frame. Identify the name of the column you want to tokenize.

Then use the unnest_tokens() command to create a data frame of word tokens.

Hints (click here)

It's the text column you want. gutenbergr includes the gutenberg_ID in case you download multiple texts into the same data frame. Remember to name the column in the new data frame word so we can filter any stop words later on. 

Solution (click here)

OoS <- gutenberg_download(2009)

OoS

#> # A tibble: 21,556 x 2
#>    gutenberg_id text                                                            
#>           <int> <chr>                                                           
#>  1         2009 "1228    1859, First Edition"                                   
#>  2         2009 "22764   1860, Second Edition"                                  
#>  3         2009 "2009    1872, Sixth Edition, considered the definitive edition…
#>  4         2009 ""                                                              
#>  5         2009 ""                                                              
#>  6         2009 ""                                                              
#>  7         2009 ""                                                              
#>  8         2009 "On the Origin of Species"                                      
#>  9         2009 ""                                                              
#> 10         2009 "BY MEANS OF NATURAL SELECTION,"                                
#> # … with 21,546 more rows

OoS_tidy <- OoS %>%
    unnest_tokens(word, text)
    
OoS_tidy

#> # A tibble: 209,048 x 2
#>    gutenberg_id word   
#>           <int> <chr>  
#>  1         2009 1228   
#>  2         2009 1859   
#>  3         2009 first  
#>  4         2009 edition
#>  5         2009 22764  
#>  6         2009 1860   
#>  7         2009 second 
#>  8         2009 edition
#>  9         2009 2009   
#> 10         2009 1872   
#> # … with 209,038 more rows
…
Count and sort the tokens into a new data frame. Inspect the output. Are there any stop words?

Hints (click here)

 Pipe the word column of the data frame into the dplyr count() function with the sort = TRUE option. 

Solution (click here)

OoS_count <- OoS_tidy %>% 
    count(word, sort = TRUE)

OoS_count

#> # A tibble: 9,233 x 2
#>    word      n
#>    <chr> <int>
#>  1 the   14570
#>  2 of    10438
#>  3 and    5853
#>  4 in     5414
#>  5 to     4753
#>  6 a      3368
#>  7 that   2749
#>  8 as     2230
#>  9 have   2114
#> 10 be     2099
#> # … with 9,223 more rows
…
Hints (click here)

 Use antijoin() with the tidytext stop_words data frame: 

Solution (click here)

OoS_count <- OoS_tidy %>%
    count(word, sort = TRUE) %>% 
    anti_join(stop_words)

#> Joining, by = "word"

OoS_count

#> # A tibble: 8,678 x 2
#>    word          n
#>    <chr>     <int>
#>  1 species    1921
#>  2 forms       565
#>  3 selection   561
#>  4 natural     535
#>  5 varieties   486
#>  6 plants      471
#>  7 animals     436
#>  8 distinct    357
#>  9 life        350
#> 10 nature      325
#> # … with 8,668 more rows
…
