Session 20: Cleaning up variables names, and other wrangling | BioDASH
…
What you can see is that there are variable names here that don’t comply with the “rules” I just indicated. How can that be?! You can see for the variable Sample Number that it is surrounded by backticks. This is how R know that this is a variable name.

Okay, so who cares? If you want to call that particular variable, you will have to put it in backticks. For example:

# this doesn't work
penguins_raw %>%
  select(Sample Number)

# this works but is clunky
penguins_raw %>%
  select(`Sample Number`)
#> # A tibble: 344 × 1
#>    `Sample Number`
#>              <dbl>
#>  1               1
#>  2               2
#>  3               3
#>  4               4
#>  5               5
#>  6               6
#>  7               7
#>  8               8
#>  9               9
#> 10              10
#> # … with 334 more rows
…
