S05E01: R for Data Science (2e) - Chapter 5 - Pipes | BioDASH
…
What is a pipe?

A pipe is a programming tool that takes the output of one command (in R, a function) and passes it on to be used as the input for another command.

Pipes prevent you from having to save intermediate output to a file or object. They also make your code shorter and easier to understand.

A dataframe example

In R, we work a lot with “dataframes”, rectangular data structures like spreadsheets – and in particular, the R4DS book and the tidyverse focus on this very heavily.

So let’s see an example of using a pipe with the diamonds dataframe, which is automatically loaded along with the tidyverse. It contains information on almost 54,000 diamonds (one diamond per row):

diamonds
#> # A tibble: 53,940 × 10
#>    carat cut       color clarity depth table price     x     y     z
#>    <dbl> <ord>     <ord> <ord>   <dbl> <dbl> <int> <dbl> <dbl> <dbl>
#>  1  0.23 Ideal     E     SI2      61.5    55   326  3.95  3.98  2.43
#>  2  0.21 Premium   E     SI1      59.8    61   326  3.89  3.84  2.31
#>  3  0.23 Good      E     VS1      56.9    65   327  4.05  4.07  2.31
#>  4  0.29 Premium   I     VS2      62.4    58   334  4.2   4.23  2.63
#>  5  0.31 Good      J     SI2      63.3    58   335  4.34  4.35  2.75
#>  6  0.24 Very Good J     VVS2     62.8    57   336  3.94  3.96  2.48
#>  7  0.24 Very Good I     VVS1     62.3    57   336  3.95  3.98  2.47
#>  8  0.26 Very Good H     SI1      61.9    55   337  4.07  4.11  2.53
#>  9  0.22 Fair      E     VS2      65.1    61   337  3.87  3.78  2.49
#> 10  0.23 Very Good H     VS1      59.4    61   338  4     4.05  2.39
#> # … with 53,930 more rows
…
Let’s say we want to subset this dataframe so it only contains diamonds that cost over $1,000, and only shows the columns carat, cut, and price.

Without using pipes, we could start by selecting the columns of interest with the select() function, and saving the output in a new dataframe called diamonds_simple:

# The first argument is the input dataframe, the others are the columns we want
diamonds_simple <- select(.data = diamonds,
                          carat, cut, price)

Next, we take diamonds_simple and use the filter() function to only select the diamonds (rows) that we want:

filter(.data = diamonds_simple,
       price > 1000)
#> # A tibble: 39,416 × 3
#>    carat cut       price
#>    <dbl> <ord>     <int>
#>  1  0.7  Ideal      2757
#>  2  0.86 Fair       2757
#>  3  0.7  Ideal      2757
#>  4  0.71 Very Good  2759
#>  5  0.78 Very Good  2759
#>  6  0.7  Good       2759
#>  7  0.7  Good       2759
#>  8  0.96 Fair       2759
#>  9  0.73 Very Good  2760
#> 10  0.8  Premium    2760
#> # … with 39,406 more rows

But this can be done much more elegantly, and without wasting computer memory on an intermediate object, using the pipe:

diamonds |>
  select(carat, cut, price) |>
  filter(price > 1000)
#> # A tibble: 39,416 × 3
#>    carat cut       price
#>    <dbl> <ord>     <int>
#>  1  0.7  Ideal      2757
#>  2  0.86 Fair       2757
#>  3  0.7  Ideal      2757
#>  4  0.71 Very Good  2759
#>  5  0.78 Very Good  2759
#>  6  0.7  Good       2759
#>  7  0.7  Good       2759
#>  8  0.96 Fair       2759
#>  9  0.73 Very Good  2760
#> 10  0.8  Premium    2760
#> # … with 39,406 more rows
…
Using the _ placeholder

The R pipe passes its contents to the first argument of a function. In other words, the code we saw above is shorthand for the following, where _ is the placeholder for the data that the pipe passes on:

diamonds |>
  select(.data = _, carat, cut, price) |>
  filter(.data = _, price > 1000)
#> # A tibble: 39,416 × 3
#>    carat cut       price
#>    <dbl> <ord>     <int>
#>  1  0.7  Ideal      2757
#>  2  0.86 Fair       2757
#>  3  0.7  Ideal      2757
#>  4  0.71 Very Good  2759
#>  5  0.78 Very Good  2759
#>  6  0.7  Good       2759
#>  7  0.7  Good       2759
#>  8  0.96 Fair       2759
#>  9  0.73 Very Good  2760
#> 10  0.8  Premium    2760
#> # … with 39,406 more rows
…
