S04E14: R for Data Science - Chapter 5.6: summarize, some more | BioDASH
…
Note, we actually got 11, that is because in 10th place there is a tie. Ties are kept by default, but can be turned off by setting with_ties = FALSE.

You can also set the proportion of results to return using prop =.

penguins %>%
  drop_na(body_mass_g) %>% # dropping observations with missing values
  slice_max(body_mass_g, prop = 0.1) # the top 10% heaviest penguins
#> # A tibble: 34 × 8
#>    species island bill_length_mm bill_depth_mm flipper_len…¹ body_…² sex    year
#>    <fct>   <fct>           <dbl>         <dbl>         <int>   <int> <fct> <int>
#>  1 Gentoo  Biscoe           49.2          15.2           221    6300 male   2007
#>  2 Gentoo  Biscoe           59.6          17             230    6050 male   2007
#>  3 Gentoo  Biscoe           51.1          16.3           220    6000 male   2008
#>  4 Gentoo  Biscoe           48.8          16.2           222    6000 male   2009
#>  5 Gentoo  Biscoe           45.2          16.4           223    5950 male   2008
#>  6 Gentoo  Biscoe           49.8          15.9           229    5950 male   2009
#>  7 Gentoo  Biscoe           48.4          14.6           213    5850 male   2007
#>  8 Gentoo  Biscoe           49.3          15.7           217    5850 male   2007
#>  9 Gentoo  Biscoe           55.1          16             230    5850 male   2009
#> 10 Gentoo  Biscoe           49.5          16.2           229    5800 male   2008
#> # … with 24 more rows, and abbreviated variable names ¹​flipper_length_mm,
#> #   ²​body_mass_g
…
