Code Club S02E05: Intro to the Tidyverse (Part 2) | BioDASH
…
Okay, now we have a sense of what the penguins dataset is.

Now we want to sort penguins dataframe by body mass to quickly learn about the lightest penguin and its relations to other variables. We will use the pipe operator %>% to feed the data to the arrange() function. We then specify name of the variable that we want to sort the dataframe by.

In this example, we are sorting by variable body_mass_g, so we will see the lightest penguins at the top of the dataframe:

penguins %>%           # take the penguins_data
  arrange(body_mass_g) # sort the dataframe in ascending order based on body mass
#> # A tibble: 344 × 8
#>    species   island    bill_length_mm bill_depth_mm flipper_length_… body_mass_g
#>    <fct>     <fct>              <dbl>         <dbl>            <int>       <int>
#>  1 Chinstrap Dream               46.9          16.6              192        2700
#>  2 Adelie    Biscoe              36.5          16.6              181        2850
#>  3 Adelie    Biscoe              36.4          17.1              184        2850
#>  4 Adelie    Biscoe              34.5          18.1              187        2900
#>  5 Adelie    Dream               33.1          16.1              178        2900
#>  6 Adelie    Torgersen           38.6          17                188        2900
#>  7 Chinstrap Dream               43.2          16.6              187        2900
#>  8 Adelie    Biscoe              37.9          18.6              193        2925
#>  9 Adelie    Dream               37.5          18.9              179        2975
#> 10 Adelie    Dream               37            16.9              185        3000
#> # … with 334 more rows, and 2 more variables: sex <fct>, year <int>

If we wanted to sort descendingly, such that the heaviest penguin are on top, we can add a - in front of the variable:

penguins %>%             # take the penguins_data
  arrange(-body_mass_g)  # sort the dataframe in descending order based on body mass
#> # A tibble: 344 × 8
#>    species island bill_length_mm bill_depth_mm flipper_length_mm body_mass_g
#>    <fct>   <fct>           <dbl>         <dbl>             <int>       <int>
#>  1 Gentoo  Biscoe           49.2          15.2               221        6300
#>  2 Gentoo  Biscoe           59.6          17                 230        6050
#>  3 Gentoo  Biscoe           51.1          16.3               220        6000
#>  4 Gentoo  Biscoe           48.8          16.2               222        6000
#>  5 Gentoo  Biscoe           45.2          16.4               223        5950
#>  6 Gentoo  Biscoe           49.8          15.9               229        5950
#>  7 Gentoo  Biscoe           48.4          14.6               213        5850
#>  8 Gentoo  Biscoe           49.3          15.7               217        5850
#>  9 Gentoo  Biscoe           55.1          16                 230        5850
#> 10 Gentoo  Biscoe           49.5          16.2               229        5800
#> # … with 334 more rows, and 2 more variables: sex <fct>, year <int>
…
