Session 6: Factors | BioDASH
…
(Despite what we’ve learned last week, start by merely plotting the mean, and no distributions, using a barplot or with geom_point().)

Source: (R for Data Science)

 Hints (click here)  
 In order to be able to order the factor by the average number of hours spent watching TV, first compute this average per religion, and save the results in a dataframe (use `mutate()` and `summarize()`).
Then, use fct_recorder() to reorder the factor.

 Solutions (click here)  

First, have a look at the dataset:

forcats::gss_cat

#> # A tibble: 21,483 x 9
#>     year marital     age race  rincome    partyid     relig     denom    tvhours
#>    <int> <fct>     <int> <fct> <fct>      <fct>       <fct>     <fct>      <int>
#>  1  2000 Never ma…    26 White $8000 to … Ind,near r… Protesta… Souther…      12
#>  2  2000 Divorced     48 White $8000 to … Not str re… Protesta… Baptist…      NA
#>  3  2000 Widowed      67 White Not appli… Independent Protesta… No deno…       2
#>  4  2000 Never ma…    39 White Not appli… Ind,near r… Orthodox… Not app…       4
#>  5  2000 Divorced     25 White Not appli… Not str de… None      Not app…       1
#>  6  2000 Married      25 White $20000 - … Strong dem… Protesta… Souther…      NA
#>  7  2000 Never ma…    36 White $25000 or… Not str re… Christian Not app…       3
#>  8  2000 Divorced     44 White $7000 to … Ind,near d… Protesta… Luthera…      NA
#>  9  2000 Married      44 White $25000 or… Not str de… Protesta… Other          0
#> 10  2000 Married      47 White $25000 or… Strong rep… Protesta… Souther…       3
#> # … with 21,473 more rows
…
