S04E12: R for Data Science - Chapter 5.5: mutate | BioDASH
…
The mutate() function

The mutate() function always adds new columns at the end of your dataset. Let us create a small dataset so we can see the new variables:

flights_sml <- select(flights, 
  year:day, 
  ends_with("delay"), 
  distance, 
  air_time
)

As a first example, let’s add columns gain (delay made up) and speed:

#> # A tibble: 336,776 × 9
#>     year month   day dep_delay arr_delay distance air_time  gain speed
#>    <int> <int> <int>     <dbl>     <dbl>    <dbl>    <dbl> <dbl> <dbl>
#>  1  2013     1     1         2        11     1400      227    -9  370.
#>  2  2013     1     1         4        20     1416      227   -16  374.
#>  3  2013     1     1         2        33     1089      160   -31  408.
#>  4  2013     1     1        -1       -18     1576      183    17  517.
#>  5  2013     1     1        -6       -25      762      116    19  394.
#>  6  2013     1     1        -4        12      719      150   -16  288.
#>  7  2013     1     1        -5        19     1065      158   -24  404.
#>  8  2013     1     1        -3       -14      229       53    11  259.
#>  9  2013     1     1        -3        -8      944      140     5  405.
#> 10  2013     1     1        -2         8      733      138   -10  319.
#> # … with 336,766 more rows

mutate(flights_sml,
  gain = dep_delay - arr_delay,
  speed = distance / air_time * 60
)

transmute() is very similar to mutate(), except the returned dataframe only contains the new variables that were created:

transmute(flights,
  gain = dep_delay - arr_delay,
  hours = air_time / 60,
  gain_per_hour = gain / hours
)

#> # A tibble: 336,776 × 3
#>     gain hours gain_per_hour
#>    <dbl> <dbl>         <dbl>
#>  1    -9 3.78          -2.38
#>  2   -16 3.78          -4.23
#>  3   -31 2.67         -11.6 
#>  4    17 3.05           5.57
#>  5    19 1.93           9.83
#>  6   -16 2.5           -6.4 
#>  7   -24 2.63          -9.11
#>  8    11 0.883         12.5 
#>  9     5 2.33           2.14
#> 10   -10 2.3           -4.35
#> # … with 336,766 more rows
Useful creation functions to use with mutate

Note that functions must be vectorised before use with mutate().

Arithmetic operators: + (addition), - (subtraction), * (multiplication), / (division), ^ (to the power)

Modular arithmetic: %/% (integer division) and %% (remainder). Modular arithmetic is a handy tool because it allows you to break integers up into pieces. For example:

transmute(flights,
  dep_time,
  hour = dep_time %/% 100,
  minute = dep_time %% 100
)

#> # A tibble: 336,776 × 3
#>    dep_time  hour minute
#>       <int> <dbl>  <dbl>
#>  1      517     5     17
#>  2      533     5     33
#>  3      542     5     42
#>  4      544     5     44
#>  5      554     5     54
#>  6      554     5     54
#>  7      555     5     55
#>  8      557     5     57
#>  9      557     5     57
#> 10      558     5     58
#> # … with 336,766 more rows
…
Now, you might think you’re all done, but there is one remaining problem: midnight was originally represented as 2400, which the code described above would convert to 1440 (24 * 60). But it should be 0 instead. This is a tricky one, but you can handle it using an additional %% calculation.

Solution (click here)

To handle the midnight case, use %% 1440: this would simply return the original value for all values below 1440, and would return 0 only for 1440 (midnight):

flights %>%
  select(dep_time, sched_dep_time) %>% 
  mutate(
    dep_time_mins = (dep_time %/% 100 * 60 + dep_time %% 100) %% 1440,
    sched_dep_time_mins = (sched_dep_time %/% 100 * 60 + sched_dep_time %% 100) %% 1440
    )

#> # A tibble: 336,776 × 4
#>    dep_time sched_dep_time dep_time_mins sched_dep_time_mins
#>       <int>          <int>         <dbl>               <dbl>
#>  1      517            515           317                 315
#>  2      533            529           333                 329
#>  3      542            540           342                 340
#>  4      544            545           344                 345
#>  5      554            600           354                 360
#>  6      554            558           354                 358
#>  7      555            600           355                 360
#>  8      557            600           357                 360
#>  9      557            600           357                 360
#> 10      558            600           358                 360
#> # … with 336,766 more rows
…
Finally, use filter() to see if there are any rows where the delay_diff does not equal 0. Recall that we would expect no differences at all, if all is well. So what is going on with those rows?

Solution (click here)

flights %>% 
  select(dep_time, sched_dep_time, dep_delay) %>% 
  mutate(
    dep_time_min = (dep_time %/% 100 * 60 + dep_time %% 100) %% 1440,
    sched_dep_time_min = (sched_dep_time %/% 100 * 60 + sched_dep_time %% 100) %% 1440,
    our_delay_calc = dep_time_min - sched_dep_time_min,
    dep_delay_diff = our_delay_calc - dep_delay
  ) %>% 
  filter(dep_delay_diff != 0)

#> # A tibble: 1,236 × 7
#>    dep_time sched_dep_time dep_delay dep_time_min sched_dep_ti…¹ our_d…² dep_d…³
#>       <int>          <int>     <dbl>        <dbl>          <dbl>   <dbl>   <dbl>
#>  1      848           1835       853          528           1115    -587   -1440
#>  2       42           2359        43           42           1439   -1397   -1440
#>  3      126           2250       156           86           1370   -1284   -1440
#>  4       32           2359        33           32           1439   -1407   -1440
#>  5       50           2145       185           50           1305   -1255   -1440
#>  6      235           2359       156          155           1439   -1284   -1440
#>  7       25           2359        26           25           1439   -1414   -1440
#>  8      106           2245       141           66           1365   -1299   -1440
#>  9       14           2359        15           14           1439   -1425   -1440
#> 10       37           2230       127           37           1350   -1313   -1440
#> # … with 1,226 more rows, and abbreviated variable names ¹​sched_dep_time_min,
#> #   ²​our_delay_calc, ³​dep_delay_diff
…
carrier <- "UA"
flight <- 1545
paste0("The full flight number is: ", carrier, flight)

#> [1] "The full flight number is: UA1545"

Use paste0() inside mutate() to create a new column flight_no which has the full flight number (carrier followed by flight, like above) for each flight.

Solution (click here)

flights %>%
  select(carrier, flight) %>%
  mutate(flight_no = paste0(carrier, flight))

#> # A tibble: 336,776 × 3
#>    carrier flight flight_no
#>    <chr>    <int> <chr>    
#>  1 UA        1545 UA1545   
#>  2 UA        1714 UA1714   
#>  3 AA        1141 AA1141   
#>  4 B6         725 B6725    
#>  5 DL         461 DL461    
#>  6 UA        1696 UA1696   
#>  7 B6         507 B6507    
#>  8 EV        5708 EV5708   
#>  9 B6          79 B679     
#> 10 AA         301 AA301    
#> # … with 336,766 more rows
…
