S04E08: R for Data Science - Chapter 5.1 - 5.3 | BioDASH
…
NA are always sorted at the end.

Exercise 2

Sort flights to find the most delayed flights.

Find the flights that left earliest (relative to the scheduled time).

Solution (click here)

If you sort in descending order by dep_delay, you’ll get the most delayed flights at the top:

arrange(flights, desc(dep_delay))

#> # A tibble: 336,776 × 19
#>     year month   day dep_time sched_de…¹ dep_d…² arr_t…³ sched…⁴ arr_d…⁵ carrier
#>    <int> <int> <int>    <int>      <int>   <dbl>   <int>   <int>   <dbl> <chr>  
#>  1  2013     1     9      641        900    1301    1242    1530    1272 HA     
#>  2  2013     6    15     1432       1935    1137    1607    2120    1127 MQ     
#>  3  2013     1    10     1121       1635    1126    1239    1810    1109 MQ     
#>  4  2013     9    20     1139       1845    1014    1457    2210    1007 AA     
#>  5  2013     7    22      845       1600    1005    1044    1815     989 MQ     
#>  6  2013     4    10     1100       1900     960    1342    2211     931 DL     
#>  7  2013     3    17     2321        810     911     135    1020     915 DL     
#>  8  2013     6    27      959       1900     899    1236    2226     850 DL     
#>  9  2013     7    22     2257        759     898     121    1026     895 DL     
#> 10  2013    12     5      756       1700     896    1058    2020     878 AA     
#> # … with 336,766 more rows, 9 more variables: flight <int>, tailnum <chr>,
#> #   origin <chr>, dest <chr>, air_time <dbl>, distance <dbl>, hour <dbl>,
#> #   minute <dbl>, time_hour <dttm>, and abbreviated variable names
#> #   ¹​sched_dep_time, ²​dep_delay, ³​arr_time, ⁴​sched_arr_time, ⁵​arr_delay
#> # ℹ Use `print(n = ...)` to see more rows, and `colnames()` to see all variable names

If you sort in ascending order by dep_delay, you’ll get the flights that left earliest relative to the scheduled time at the top:

arrange(flights, desc(dep_delay))

#> # A tibble: 336,776 × 19
#>     year month   day dep_time sched_de…¹ dep_d…² arr_t…³ sched…⁴ arr_d…⁵ carrier
#>    <int> <int> <int>    <int>      <int>   <dbl>   <int>   <int>   <dbl> <chr>  
#>  1  2013     1     9      641        900    1301    1242    1530    1272 HA     
#>  2  2013     6    15     1432       1935    1137    1607    2120    1127 MQ     
#>  3  2013     1    10     1121       1635    1126    1239    1810    1109 MQ     
#>  4  2013     9    20     1139       1845    1014    1457    2210    1007 AA     
#>  5  2013     7    22      845       1600    1005    1044    1815     989 MQ     
#>  6  2013     4    10     1100       1900     960    1342    2211     931 DL     
#>  7  2013     3    17     2321        810     911     135    1020     915 DL     
#>  8  2013     6    27      959       1900     899    1236    2226     850 DL     
#>  9  2013     7    22     2257        759     898     121    1026     895 DL     
#> 10  2013    12     5      756       1700     896    1058    2020     878 AA     
#> # … with 336,766 more rows, 9 more variables: flight <int>, tailnum <chr>,
#> #   origin <chr>, dest <chr>, air_time <dbl>, distance <dbl>, hour <dbl>,
#> #   minute <dbl>, time_hour <dttm>, and abbreviated variable names
#> #   ¹​sched_dep_time, ²​dep_delay, ³​arr_time, ⁴​sched_arr_time, ⁵​arr_delay
#> # ℹ Use `print(n = ...)` to see more rows, and `colnames()` to see all variable names

Exercise 4

Which flights travelled the farthest?

Which travelled the shortest?

Solution (click here)

Which flights travelled the farthest?

arrange(flights, desc(distance))

#> # A tibble: 336,776 × 19
#>     year month   day dep_time sched_de…¹ dep_d…² arr_t…³ sched…⁴ arr_d…⁵ carrier
#>    <int> <int> <int>    <int>      <int>   <dbl>   <int>   <int>   <dbl> <chr>  
#>  1  2013     1     1      857        900      -3    1516    1530     -14 HA     
#>  2  2013     1     2      909        900       9    1525    1530      -5 HA     
#>  3  2013     1     3      914        900      14    1504    1530     -26 HA     
#>  4  2013     1     4      900        900       0    1516    1530     -14 HA     
#>  5  2013     1     5      858        900      -2    1519    1530     -11 HA     
#>  6  2013     1     6     1019        900      79    1558    1530      28 HA     
#>  7  2013     1     7     1042        900     102    1620    1530      50 HA     
#>  8  2013     1     8      901        900       1    1504    1530     -26 HA     
#>  9  2013     1     9      641        900    1301    1242    1530    1272 HA     
#> 10  2013     1    10      859        900      -1    1449    1530     -41 HA     
#> # … with 336,766 more rows, 9 more variables: flight <int>, tailnum <chr>,
#> #   origin <chr>, dest <chr>, air_time <dbl>, distance <dbl>, hour <dbl>,
#> #   minute <dbl>, time_hour <dttm>, and abbreviated variable names
#> #   ¹​sched_dep_time, ²​dep_delay, ³​arr_time, ⁴​sched_arr_time, ⁵​arr_delay
#> # ℹ Use `print(n = ...)` to see more rows, and `colnames()` to see all variable names

Which travelled the shortest?

arrange(flights, distance)

#> # A tibble: 336,776 × 19
#>     year month   day dep_time sched_de…¹ dep_d…² arr_t…³ sched…⁴ arr_d…⁵ carrier
#>    <int> <int> <int>    <int>      <int>   <dbl>   <int>   <int>   <dbl> <chr>  
#>  1  2013     7    27       NA        106      NA      NA     245      NA US     
#>  2  2013     1     3     2127       2129      -2    2222    2224      -2 EV     
#>  3  2013     1     4     1240       1200      40    1333    1306      27 EV     
#>  4  2013     1     4     1829       1615     134    1937    1721     136 EV     
#>  5  2013     1     4     2128       2129      -1    2218    2224      -6 EV     
#>  6  2013     1     5     1155       1200      -5    1241    1306     -25 EV     
#>  7  2013     1     6     2125       2129      -4    2224    2224       0 EV     
#>  8  2013     1     7     2124       2129      -5    2212    2224     -12 EV     
#>  9  2013     1     8     2127       2130      -3    2304    2225      39 EV     
#> 10  2013     1     9     2126       2129      -3    2217    2224      -7 EV     
#> # … with 336,766 more rows, 9 more variables: flight <int>, tailnum <chr>,
#> #   origin <chr>, dest <chr>, air_time <dbl>, distance <dbl>, hour <dbl>,
#> #   minute <dbl>, time_hour <dttm>, and abbreviated variable names
#> #   ¹​sched_dep_time, ²​dep_delay, ³​arr_time, ⁴​sched_arr_time, ⁵​arr_delay
#> # ℹ Use `print(n = ...)` to see more rows, and `colnames()` to see all variable names
…
