Session 2: dplyr core verbs | BioDASH
…
#>   Sepal.Length Sepal.Width Petal.Length Petal.Width Species
#> 1          4.3         3.0          1.1         0.1  setosa
#> 2          4.4         2.9          1.4         0.2  setosa
#> 3          4.4         3.0          1.3         0.2  setosa
#> 4          4.4         3.2          1.3         0.2  setosa
#> 5          4.5         2.3          1.3         0.3  setosa
#> 6          4.6         3.1          1.5         0.2  setosa

What if we want to arrange by Sepal.Length, but within Species? We can do that using the helper group_by().

iris_data %>%
  group_by(Species) %>%
  arrange(Sepal.Length)

#> # A tibble: 150 x 5
#> # Groups:   Species [3]
#>    Sepal.Length Sepal.Width Petal.Length Petal.Width Species
#>           <dbl>       <dbl>        <dbl>       <dbl> <fct>  
#>  1          4.3         3            1.1         0.1 setosa 
#>  2          4.4         2.9          1.4         0.2 setosa 
#>  3          4.4         3            1.3         0.2 setosa 
#>  4          4.4         3.2          1.3         0.2 setosa 
#>  5          4.5         2.3          1.3         0.3 setosa 
#>  6          4.6         3.1          1.5         0.2 setosa 
#>  7          4.6         3.4          1.4         0.3 setosa 
#>  8          4.6         3.6          1           0.2 setosa 
#>  9          4.6         3.2          1.4         0.2 setosa 
#> 10          4.7         3.2          1.3         0.2 setosa 
#> # … with 140 more rows
…
#> # A tibble: 6 x 2
#>   species_en            n
#>   <chr>             <int>
#> 1 Northern Cardinal 23064
#> 2 Mourning Dove     19135
#> 3 Dark-eyed Junco   18203
#> 4 Downy Woodpecker  17196
#> 5 House Sparrow     15939
#> 6 Blue Jay          15611

# another option
birds %>% 
  count(species_en, sort = TRUE) 

#> # A tibble: 170 x 2
#>    species_en                 n
#>    <chr>                  <int>
#>  1 Northern Cardinal      23064
#>  2 Mourning Dove          19135
#>  3 Dark-eyed Junco        18203
#>  4 Downy Woodpecker       17196
#>  5 House Sparrow          15939
#>  6 Blue Jay               15611
#>  7 American Goldfinch     14732
#>  8 House Finch            14551
#>  9 Tufted Titmouse        14409
#> 10 Black-capped Chickadee 13471
#> # … with 160 more rows

Bonus 2

What is the least commonly observed bird (or birds) in Ohio?

 Hints (click here) 
Try using the data frame you’ve created in the previous exercise. 

 Solutions (click here) 

unique_birds_tally %>%
  arrange(n)

#> # A tibble: 170 x 2
#>    species_en               n
#>    <chr>                <int>
#>  1 Arctic Redpoll           1
#>  2 Clay-colored Sparrow     1
#>  3 Dickcissel               1
#>  4 Eurasian Wigeon          1
#>  5 Great Egret              1
#>  6 Green Heron              1
#>  7 Grey Partridge           1
#>  8 Harris's Sparrow         1
#>  9 Lesser Yellowlegs        1
#> 10 Lincoln's Sparrow        1
#> # … with 160 more rows
…
