S04E01: R for Data Science - Chapter 1 | BioDASH
…
Example 2, not tidy (in matrix form):

#>         gene1 gene2 gene3 gene4 gene5
#> sample1    54    58    48    47    42
#> sample2    49    53    45    48    49
#> sample3    46    53    48    45    40
#> sample4    60    46    49    53    63
#> sample5    62    49    46    44    52

Example 2, tidy:

#> # A tibble: 25 × 3
#>    sample  gene  count
#>    <chr>   <chr> <int>
#>  1 sample1 gene1    54
#>  2 sample1 gene2    58
#>  3 sample1 gene3    48
#>  4 sample1 gene4    47
#>  5 sample1 gene5    42
#>  6 sample2 gene1    49
#>  7 sample2 gene2    53
#>  8 sample2 gene3    45
#>  9 sample2 gene4    48
#> 10 sample2 gene5    49
#> # … with 15 more rows
…
