S05E02: R4DS (2e) - Ch. 6 - Tidy Data | BioDASH
…
It’s easier to see how pivot_longer works if we take it component by component. Let us look at how it works visually using Figure 6.3, Figure 6.4, and Figure 6.5 in the book.

Example with data in column names

This example will work with the billboard dataframe that is loaded along with the tidyverse. This dataset records the billboard rank of songs in the year 2000:

billboard 
#> # A tibble: 317 × 79
#>    artist track date.ent…¹   wk1   wk2   wk3   wk4   wk5   wk6   wk7   wk8   wk9
#>    <chr>  <chr> <date>     <dbl> <dbl> <dbl> <dbl> <dbl> <dbl> <dbl> <dbl> <dbl>
#>  1 2 Pac  Baby… 2000-02-26    87    82    72    77    87    94    99    NA    NA
#>  2 2Ge+h… The … 2000-09-02    91    87    92    NA    NA    NA    NA    NA    NA
#>  3 3 Doo… Kryp… 2000-04-08    81    70    68    67    66    57    54    53    51
#>  4 3 Doo… Loser 2000-10-21    76    76    72    69    67    65    55    59    62
#>  5 504 B… Wobb… 2000-04-15    57    34    25    17    17    31    36    49    53
#>  6 98^0   Give… 2000-08-19    51    39    34    26    26    19     2     2     3
#>  7 A*Tee… Danc… 2000-07-08    97    97    96    95   100    NA    NA    NA    NA
#>  8 Aaliy… I Do… 2000-01-29    84    62    51    41    38    35    35    38    38
#>  9 Aaliy… Try … 2000-03-18    59    53    38    28    21    18    16    14    12
#> 10 Adams… Open… 2000-08-26    76    76    74    69    68    67    61    58    57
#> # … with 307 more rows, 67 more variables: wk10 <dbl>, wk11 <dbl>, wk12 <dbl>,
#> #   wk13 <dbl>, wk14 <dbl>, wk15 <dbl>, wk16 <dbl>, wk17 <dbl>, wk18 <dbl>,
#> #   wk19 <dbl>, wk20 <dbl>, wk21 <dbl>, wk22 <dbl>, wk23 <dbl>, wk24 <dbl>,
#> #   wk25 <dbl>, wk26 <dbl>, wk27 <dbl>, wk28 <dbl>, wk29 <dbl>, wk30 <dbl>,
#> #   wk31 <dbl>, wk32 <dbl>, wk33 <dbl>, wk34 <dbl>, wk35 <dbl>, wk36 <dbl>,
#> #   wk37 <dbl>, wk38 <dbl>, wk39 <dbl>, wk40 <dbl>, wk41 <dbl>, wk42 <dbl>,
#> #   wk43 <dbl>, wk44 <dbl>, wk45 <dbl>, wk46 <dbl>, wk47 <dbl>, wk48 <dbl>, …

We will use pivot_longer() to tidy this dataframe:

billboard |> 
  pivot_longer(
    cols = starts_with("wk"), 
    names_to = "week", 
    values_to = "rank"
  )
#> # A tibble: 24,092 × 5
#>    artist track                   date.entered week   rank
#>    <chr>  <chr>                   <date>       <chr> <dbl>
#>  1 2 Pac  Baby Don't Cry (Keep... 2000-02-26   wk1      87
#>  2 2 Pac  Baby Don't Cry (Keep... 2000-02-26   wk2      82
#>  3 2 Pac  Baby Don't Cry (Keep... 2000-02-26   wk3      72
#>  4 2 Pac  Baby Don't Cry (Keep... 2000-02-26   wk4      77
#>  5 2 Pac  Baby Don't Cry (Keep... 2000-02-26   wk5      87
#>  6 2 Pac  Baby Don't Cry (Keep... 2000-02-26   wk6      94
#>  7 2 Pac  Baby Don't Cry (Keep... 2000-02-26   wk7      99
#>  8 2 Pac  Baby Don't Cry (Keep... 2000-02-26   wk8      NA
#>  9 2 Pac  Baby Don't Cry (Keep... 2000-02-26   wk9      NA
#> 10 2 Pac  Baby Don't Cry (Keep... 2000-02-26   wk10     NA
#> # … with 24,082 more rows
…
names_to – the name you would like to give to the new column whose values will hold what were the column names in the original dataframe

values_to – the name you would like to give to the new column whose values will hold what were the column valies in the original dataframe.

You can see that we get some NAs after pivoting. In this case, NAs are forced to exist because of the structure of the dataset: that is, they aren’t actual missing values. It would therefore make sense to get rid of them, which we can do with values_drop_na = TRUE:

billboard |> 
  pivot_longer(
    cols = starts_with("wk"), 
    names_to = "week", 
    values_to = "rank",
    values_drop_na = TRUE
  )
#> # A tibble: 5,307 × 5
#>    artist  track                   date.entered week   rank
#>    <chr>   <chr>                   <date>       <chr> <dbl>
#>  1 2 Pac   Baby Don't Cry (Keep... 2000-02-26   wk1      87
#>  2 2 Pac   Baby Don't Cry (Keep... 2000-02-26   wk2      82
#>  3 2 Pac   Baby Don't Cry (Keep... 2000-02-26   wk3      72
#>  4 2 Pac   Baby Don't Cry (Keep... 2000-02-26   wk4      77
#>  5 2 Pac   Baby Don't Cry (Keep... 2000-02-26   wk5      87
#>  6 2 Pac   Baby Don't Cry (Keep... 2000-02-26   wk6      94
#>  7 2 Pac   Baby Don't Cry (Keep... 2000-02-26   wk7      99
#>  8 2Ge+her The Hardest Part Of ... 2000-09-02   wk1      91
#>  9 2Ge+her The Hardest Part Of ... 2000-09-02   wk2      87
#> 10 2Ge+her The Hardest Part Of ... 2000-09-02   wk3      92
#> # … with 5,297 more rows
This data is now tidy, but we could make future computations a bit easier by converting the values in the column week (wk1, wk2, etc.) into a number using mutate() and readr::parse_number(). parse_number() is a handy function that will extract the numbers from a string, removing all other characters:

billboard_tidy <- billboard |> 
  pivot_longer(
    cols = starts_with("wk"), 
    names_to = "week", 
    values_to = "rank",
    values_drop_na = TRUE
  ) |> 
  mutate(
    week = parse_number(week)
  )

billboard_tidy
#> # A tibble: 5,307 × 5
#>    artist  track                   date.entered  week  rank
#>    <chr>   <chr>                   <date>       <dbl> <dbl>
#>  1 2 Pac   Baby Don't Cry (Keep... 2000-02-26       1    87
#>  2 2 Pac   Baby Don't Cry (Keep... 2000-02-26       2    82
#>  3 2 Pac   Baby Don't Cry (Keep... 2000-02-26       3    72
#>  4 2 Pac   Baby Don't Cry (Keep... 2000-02-26       4    77
#>  5 2 Pac   Baby Don't Cry (Keep... 2000-02-26       5    87
#>  6 2 Pac   Baby Don't Cry (Keep... 2000-02-26       6    94
#>  7 2 Pac   Baby Don't Cry (Keep... 2000-02-26       7    99
#>  8 2Ge+her The Hardest Part Of ... 2000-09-02       1    91
#>  9 2Ge+her The Hardest Part Of ... 2000-09-02       2    87
#> 10 2Ge+her The Hardest Part Of ... 2000-09-02       3    92
#> # … with 5,297 more rows
…
Use the pivot_longer() function.

You could use starts_with("Peak") to select all the “Peak” columns.

The Peak column names should go into the new column peak_nr, and the Peak values should go into the new column count.

Solution(click here)

metabolites_long <- metabolites |>
  pivot_longer(cols = starts_with("Peak"), 
               names_to = "peak_nr", 
               values_to = "count")

metabolites_long
#> # A tibble: 380 × 3
#>    Soy_Metabolite peak_nr    count
#>    <chr>          <chr>      <dbl>
#>  1 Alprazolam     Peak1    373291.
#>  2 Alprazolam     Peak2    207793.
#>  3 Alprazolam     Peak3     96152.
#>  4 Alprazolam     Peak4    462212.
#>  5 Alprazolam     Peak5    468161.
#>  6 Alprazolam     Peak6   1250863 
#>  7 Alprazolam     Peak7     62486.
#>  8 Alprazolam     Peak8    190680.
#>  9 Alprazolam     Peak9    530639.
#> 10 Alprazolam     Peak10    64183.
#> # … with 370 more rows
…
Bonus:

If you’ve used group_by() and summarize() before, try to compute the mean count per metabolite.

If you’ve made ggplots before, make a boxplot of metabolite counts, with counts across Peaks along the x-axis, and metabolites along the y-axis.

Hints(click here)

Use the mutate() function similar to the first example with mutate() in this session.

Solution(click here)

metabolites_long |>
  mutate(count_k = count / 1000)
#> # A tibble: 380 × 4
#>    Soy_Metabolite peak_nr    count count_k
#>    <chr>          <chr>      <dbl>   <dbl>
#>  1 Alprazolam     Peak1    373291.   373. 
#>  2 Alprazolam     Peak2    207793.   208. 
#>  3 Alprazolam     Peak3     96152.    96.2
#>  4 Alprazolam     Peak4    462212.   462. 
#>  5 Alprazolam     Peak5    468161.   468. 
#>  6 Alprazolam     Peak6   1250863   1251. 
#>  7 Alprazolam     Peak7     62486.    62.5
#>  8 Alprazolam     Peak8    190680.   191. 
#>  9 Alprazolam     Peak9    530639.   531. 
#> 10 Alprazolam     Peak10    64183.    64.2
#> # … with 370 more rows

Bonus 1:

metabolites_long |>
  group_by(Soy_Metabolite) |>
  summarize(mean_count = mean(count))
#> # A tibble: 38 × 2
#>    Soy_Metabolite   mean_count
#>    <chr>                 <dbl>
#>  1 Alprazolam          370646.
#>  2 Bretazenil          167582.
#>  3 Bromazepam          865158.
#>  4 Brotizolam         1194049.
#>  5 Chlordiazepoxide     87565.
#>  6 Cinolazepam         428290.
#>  7 Clonazepam          889529.
#>  8 Clorazepate          53912.
#>  9 Clotiazepam          57847.
#> 10 Cloxazolam          144292.
#> # … with 28 more rows
…
