Session 3: Joining Datasets | BioDASH
…
Hints (click here)

Try using select() to pull out just the columns species and longevity_y, then use distinct() to get the unique rows, then arrange() based on the longevity_y column. You might also find the dplyr function desc() helpful.

Alternatively, you could try grouping by species, then use summarise() to get either the max, min, or mean value for longevity_y for each species (there’s just one value for each species, so all of those statistics give the same value in this case). Then sort (arrange) the resulting summarized data frame on the longevity value.

Solutions (click here)

#option 1 - shortest-lived birds
joined_data %>% select(species, longevity_y) %>% 
                distinct() %>% 
                arrange(longevity_y)

#> # A tibble: 171 x 2
#>    species              longevity_y
#>    <chr>                      <dbl>
#>  1 Loxia leucoptera            4   
#>  2 Spiza americana             4   
#>  3 Certhia americana           4.6 
#>  4 Acanthis hornemanni         4.6 
#>  5 Tringa flavipes             4.75
#>  6 Podiceps grisegena          4.8 
#>  7 Calcarius lapponicus        5   
#>  8 Anthus rubescens            5.1 
#>  9 Perdix perdix               5.17
#> 10 Regulus satrapa             5.32
#> # … with 161 more rows

#option 1 - longest-lived birds
joined_data %>% select(species, longevity_y) %>% 
                distinct() %>% 
                arrange(desc(longevity_y))

#> # A tibble: 171 x 2
#>    species                  longevity_y
#>    <chr>                          <dbl>
#>  1 Larus argentatus                33.4
#>  2 Larus glaucoides                33  
#>  3 Larus thayeri                   33  
#>  4 Haliaeetus leucocephalus        33.0
#>  5 Larus fuscus                    32.8
#>  6 Aquila chrysaetos               32  
#>  7 Anas platyrhynchos              29  
#>  8 Larus delawarensis              28.6
#>  9 Asio otus                       27.8
#> 10 Cygnus olor                     27.7
#> # … with 161 more rows

#option 2 - shortest-lived birds
joined_data %>% group_by(species) %>% 
                summarise(longevity = max(longevity_y)) %>% 
                arrange(longevity)

#> `summarise()` ungrouping output (override with `.groups` argument)

#> # A tibble: 171 x 2
#>    species              longevity
#>    <chr>                    <dbl>
#>  1 Loxia leucoptera          4   
#>  2 Spiza americana           4   
#>  3 Acanthis hornemanni       4.6 
#>  4 Certhia americana         4.6 
#>  5 Tringa flavipes           4.75
#>  6 Podiceps grisegena        4.8 
#>  7 Calcarius lapponicus      5   
#>  8 Anthus rubescens          5.1 
#>  9 Perdix perdix             5.17
#> 10 Regulus satrapa           5.32
#> # … with 161 more rows

#option 2 - longest-lived birds
joined_data %>% group_by(species) %>% 
                summarise(longevity = max(longevity_y)) %>% 
                arrange(desc(longevity))

#> `summarise()` ungrouping output (override with `.groups` argument)

#> # A tibble: 171 x 2
#>    species                  longevity
#>    <chr>                        <dbl>
#>  1 Larus argentatus              33.4
#>  2 Larus glaucoides              33  
#>  3 Larus thayeri                 33  
#>  4 Haliaeetus leucocephalus      33.0
#>  5 Larus fuscus                  32.8
#>  6 Aquila chrysaetos             32  
#>  7 Anas platyrhynchos            29  
#>  8 Larus delawarensis            28.6
#>  9 Asio otus                     27.8
#> 10 Cygnus olor                   27.7
#> # … with 161 more rows
…
Bonus 1

What species in Ohio has the largest ratio of adult body mass to length (measured as snout vent length, or ‘adult_svl_cm’)?

Hints (click here)

Use mutate() to create a new variable containing the body mass divided by svl, then arrange the dataset using that new variable to get the species with the highest value.

Solutions (click here)

joined_data %>% mutate(ratio = adult_body_mass_g/adult_svl_cm) %>% 
                select(species_en, ratio) %>% distinct() %>% 
                arrange(desc(ratio))

#> # A tibble: 170 x 2
#>    species_en     ratio
#>    <chr>          <dbl>
#>  1 Mute Swan       71.8
#>  2 Wild Turkey     68.0
#>  3 Trumpeter Swan  64.9
#>  4 Bald Eagle      59.2
#>  5 Golden Eagle    56.2
#>  6 Canada Goose    48.3
#>  7 Tundra Swan     47.0
#>  8 Cackling Goose  44.4
#>  9 Snow Goose      35.1
#> 10 Snowy Owl       32.8
#> # … with 160 more rows
…
