Session 4: Visualizing Data | BioDASH
…
joined_data %>% 
  filter(adult_body_mass_g > 10000)

#> # A tibble: 228 x 9
#>    species locality stateProvince eventDate           species_en
#>    <chr>   <chr>    <chr>         <dttm>              <chr>     
#>  1 Cygnus… Findlay  Ohio          2008-02-17 00:00:00 Mute Swan 
#>  2 Cygnus… Dundee   Ohio          2004-02-16 00:00:00 Mute Swan 
#>  3 Cygnus… 44805 A… Ohio          2006-02-18 00:00:00 Mute Swan 
#>  4 Cygnus… 45011 H… Ohio          2005-02-19 00:00:00 Mute Swan 
#>  5 Cygnus… 45042 M… Ohio          2009-02-13 00:00:00 Trumpeter…
#>  6 Cygnus… 44813 B… Ohio          2007-02-19 00:00:00 Mute Swan 
#>  7 Cygnus… Spencer  Ohio          2008-02-16 00:00:00 Mute Swan 
#>  8 Cygnus… 44903 M… Ohio          2009-02-16 00:00:00 Mute Swan 
#>  9 Cygnus… 44601 A… Ohio          2002-02-16 00:00:00 Mute Swan 
#> 10 Cygnus… Avon La… Ohio          2007-02-17 00:00:00 Mute Swan 
#> # … with 218 more rows, and 4 more variables: adult_body_mass_g <dbl>,
#> #   adult_svl_cm <dbl>, longevity_y <dbl>, litter_or_clutch_size_n <dbl>
…
